428810 692191 509
624399 816417 509
69811 977778 525
419231 722768 509
860434 906890 445
937362 974729 507
327566 773983 509
144359 805260 509
729562 925684 525
229247 263961 443
543071 912121 525
532431 627113 509
609072 774444 509
165883 765940 509
618114 659084 509
590267 926551 525
751103 762610 424
186185 401575 443
724314 894960 525
37957 939502 525
828522 953789 525
606761 952357 525
864529 956381 507
570986 983473 525
409379 881990 525
661503 913931 525
752232 893750 525
629723 898402 525
700782 924068 525
18948 182587 383
837484 964994 525
766478 766910 300
143414 985633 525
533437 872713 525
326664 722445 509
451461 652520 509
398656 927464 525
90159 115723 354
274171 763029 509
592226 760567 509
278900 368961 441
777690 967876 525
534571 661224 509
666808 919078 525
380537 634796 509
800572 843334 525
330788 395708 441
987212 987498 352
969913 992942 458
771038 924209 525
396906 473139 449
850286 912500 476
447621 512948 470
230814 898442 525
318204 394365 441
397413 399722 374
629289 649680 416
598052 642560 509
125687 456688 449
410591 844277 525
868257 986826 507
562827 726210 509
143033 837833 525
593038 594766 328
788567 978543 525
551366 897697 525
407835 835594 509
136321 312072 443
409257 868248 525
82081 201039 383
979024 983397 427
843837 945923 507
944989 973412 458
124856 131281 344
4229 807839 509
221256 696369 509
251259 610934 470
768498 915801 525
24792 476736 449
766191 844297 525
552536 751351 509
219036 752156 509
571602 744979 509
559224 953826 525
678020 781181 504
350645 610426 470
393076 499742 449
187844 418139 449
519168 920618 525
526152 740322 509
211715 445411 449
553982 782670 509
7218 802153 509
92348 190608 383
938082 974389 507
648692 748624 504
485406 643915 509
804867 959682 525
72684 644936 509
403881 615356 470
483985 965821 525
136399 665429 509
186208 643482 509
121995 815867 509
546477 563570 452
377656 470579 449
993946 998721 440
909827 947375 507
262648 768320 509
486081 726820 509
704718 736988 424
934357 983029 507
238279 943537 525
854003 997335 507
511046 670666 509
783599 801878 468
327217 973594 525
429942 763164 509
646038 648401 341
595494 603678 403
324721 550712 470
438079 690501 509
854655 980089 507
742782 939523 525
103775 527788 470
991810 994636 365
908184 926193 476
868789 899800 445
538952 907105 525
939531 998874 458
731738 838319 525
166174 804331 509
5914 68921 340
859574 935175 476
494113 511454 426
86924 173234 383
868797 966647 507
20808 407615 443
91331 558946 470
994881 996732 365
6449 440708 449
544955 992483 525
904553 936368 476
213754 715785 509
378491 772432 509
358931 367938 410
963612 990788 458
401049 424215 449
494255 900036 525
465883 843631 525
412040 427897 418
272035 478164 449
410034 721016 509
628786 908089 525
920753 925051 445
487392 783158 509
627186 688643 442
576143 771594 509
702993 967092 525
596863 778064 509
408687 952080 525
456606 577128 470
789816 805736 468
43882 947762 525
525595 710349 509
168805 805823 509
680719 795966 504
143835 948890 525
496253 801276 509
852908 963562 507
218984 810792 509
356441 554851 470
56562 354431 443
155094 489360 449
543431 711880 509
889332 897153 370
627889 961332 525
118620 779607 509
594887 722229 509
248226 704265 509
285280 852387 525
199439 906263 525
80499 460538 449
197563 767377 509
248063 645694 509
50700 496955 449
702527 791754 504
280680 515645 470
226056 768150 509
241254 396391 441
110949 252155 443
118679 151117 375
748122 986715 525
433183 746065 509
982889 983269 383
693217 941393 525
750825 901598 525
246279 440430 449
335501 403075 441
377095 749386 509
